{
    "project_type": "javascript",

    "debugMode" : 1,
    "showFPS" : true,
    "frameRate" : 60,
    "id" : "gameCanvas",
    "renderMode" : 0,
    "engineDir":"frameworks/cocos2d-html5",

    "modules" : ["cocos2d"],

    "jsList" : [
        "src/resource.js",
		"src/Stage.js",
		"src/Player.js",
        "src/Mob.js",
        "src/GameLayer.js",
        "src/LevelManager.js",
        "src/PlayerSingleton.js",
        "src/RangeMob.js",
        "src/MenuLayer.js",
        "src/Slime.js",
        "src/Boss.js"
    ]
}
